{
	"url": "https://smart.smujmaiku.com:8022",
	"user": null,
	"pass": null,
	"host": "room",
	"io": "chip-io",
	"list": {
		"_title": {"label": "Area Title"},
		"switch": {"label": "Switch", "type": "switch", "conf": {"mod": "led", "type": "switch", "pin": "STATUS"}},
		"slider": {"label": "Slider", "type": "slider", "conf": {"mod": "light", "pin": 0}},
		"color": {"label": "Color", "type": "color", "conf": {"mod": "light", "pins": [0,1,2]}},
		"net": {"label": "Net Group", "type": "button", "list": ["First", "Second"], "conf": {"mod": "net", "list": [{"type": "wol", "mac": "20:DE:20:DE:20:DE"}, {"type": "curl", "request": {}}]}},
		"ir": {"label": "TV", "type": "button", "list": [], "conf": {"mod": "ir", "list": ["ff","ff"]}}
	}
}
